DS202A - W08 Summative
…
# A data frame for each formula and separate models will be built using both the traing and testing data.

df_tbl <-
  crossing(formula = formulas,
           nest(df_train, .key = "train_set"),
           nest(df_test, .key = "test_set")) 
df_tbl

# A tibble: 48 × 3
   formula                                                    train_set test_set
   <chr>                                                      <list>    <list>  
 1 o3_average_values ~ alt                                    <tibble>  <tibble>
 2 o3_average_values ~ barren_or_sparsely_vegetated_25km      <tibble>  <tibble>
 3 o3_average_values ~ climatic_zone                          <tibble>  <tibble>
 4 o3_average_values ~ closed_shrublands_25km                 <tibble>  <tibble>
 5 o3_average_values ~ country                                <tibble>  <tibble>
 6 o3_average_values ~ cropland_natural_vegetation_mosaic_25… <tibble>  <tibble>
 7 o3_average_values ~ croplands_25km                         <tibble>  <tibble>
 8 o3_average_values ~ deciduous_broadleaf_forest_25km        <tibble>  <tibble>
 9 o3_average_values ~ deciduous_needleleaf_forest_25km       <tibble>  <tibble>
10 o3_average_values ~ evergreen_broadleaf_forest_25km        <tibble>  <tibble>
# ℹ 38 more rows

# This builds the linear models using the training set and applies predictions to the test sets.

models <-
  df_tbl %>% 
  mutate(feature = sort(predictor_cols),
         model = map2(formula, train_set, ~ lm(.x, data = .y)),
         augmented = map2(model, test_set, ~ augment(.x, new_data = .y)))
models

# A tibble: 48 × 6
   formula                            train_set test_set feature model augmented
   <chr>                              <list>    <list>   <chr>   <lis> <list>   
 1 o3_average_values ~ alt            <tibble>  <tibble> alt     <lm>  <tibble> 
 2 o3_average_values ~ barren_or_spa… <tibble>  <tibble> barren… <lm>  <tibble> 
 3 o3_average_values ~ climatic_zone  <tibble>  <tibble> climat… <lm>  <tibble> 
 4 o3_average_values ~ closed_shrubl… <tibble>  <tibble> closed… <lm>  <tibble> 
 5 o3_average_values ~ country        <tibble>  <tibble> country <lm>  <tibble> 
 6 o3_average_values ~ cropland_natu… <tibble>  <tibble> cropla… <lm>  <tibble> 
 7 o3_average_values ~ croplands_25km <tibble>  <tibble> cropla… <lm>  <tibble> 
 8 o3_average_values ~ deciduous_bro… <tibble>  <tibble> decidu… <lm>  <tibble> 
 9 o3_average_values ~ deciduous_nee… <tibble>  <tibble> decidu… <lm>  <tibble> 
10 o3_average_values ~ evergreen_bro… <tibble>  <tibble> evergr… <lm>  <tibble> 
# ℹ 38 more rows

# Here the data is unnested to extract the predictions and calculate the r-squared value for each univariate regression.

r_squareds <- 
  models %>% 
  unnest(augmented) %>% 
  group_by(feature) %>% 
  rsq(truth = o3_average_values, estimate = .fitted) %>% 
  arrange(desc(.estimate)) %>% 
  mutate(feature = fct_reorder(feature, .estimate))

r_squareds

# A tibble: 48 × 4
   feature          .metric .estimator .estimate
   <fct>            <chr>   <chr>          <dbl>
 1 o3_median        rsq     standard       0.919
 2 o3_perc25        rsq     standard       0.858
 3 o3_nighttime_avg rsq     standard       0.856
 4 o3_perc75        rsq     standard       0.780
 5 o3_daytime_avg   rsq     standard       0.739
 6 o3_avgdma8epax   rsq     standard       0.608
 7 o3_perc90        rsq     standard       0.498
 8 o3_aot40         rsq     standard       0.378
 9 country          rsq     standard       0.273
10 o3_drmdmax1h     rsq     standard       0.261
# ℹ 38 more rows
…
